<svg xmlns="http://www.w3.org/2000/svg" width="20" height="18" viewBox="0 0 20 18">
    <path fill="#212121" fill-rule="nonzero" d="M1.992 17.836l4.216-4.08.308.119c1.062.39 2.109.586 3.14.586 1.031 0 2.078-.195 3.14-.586.892-.328 1.774-.781 2.65-1.36a16.354 16.354 0 0 0 2.062-1.64c.484-.438.93-.89 1.336-1.36l.468-.562h-.093l-.117-.023h.21l-.398-.586c-.36-.469-.758-.922-1.195-1.36a14.613 14.613 0 0 0-1.969-1.617l-.376-.246-.154-.091 3.694-3.577L17.531 0 13.3 4.097l-.245-.09a10.163 10.163 0 0 0-3.399-.585c-1.64 0-3.289.476-4.945 1.43-1.203.671-2.344 1.554-3.422 2.648A15.315 15.315 0 0 0 0 8.93v.023l.469.563c.422.468.867.921 1.336 1.359.672.625 1.36 1.172 2.062 1.64l.376.24.07.043-3.727 3.608 1.406 1.43zm3.389-6.071l-.056-.034c-.103-.065-.206-.131-.31-.2-.937-.625-1.913-1.492-2.93-2.601 1.017-1.094 1.993-1.953 2.93-2.578C6.564 5.32 8.11 4.805 9.657 4.805c.817 0 1.606.112 2.369.337l.147.047-6.791 6.576zm4.299 1.313c-.73 0-1.457-.112-2.183-.337l-.181-.06 6.81-6.591.104.062c.1.064.201.13.301.2.89.625 1.797 1.484 2.719 2.578-1.016 1.11-1.992 1.976-2.93 2.601-1.53 1.031-3.078 1.547-4.64 1.547z"/>
</svg>
