<?xml version="1.0" encoding="UTF-8"?>
<svg width="1920px" height="660px" viewBox="0 0 1920 660" version="1.1" xmlns="http://www.w3.org/2000/svg" xmlns:xlink="http://www.w3.org/1999/xlink">
    <!-- Generator: sketchtool 61 (101010) - https://sketch.com -->
    <title>0BED65F6-07CD-4E92-AED7-6AAF2A4B7C26svg</title>
    <desc>Created with sketchtool.</desc>
    <g id="0---Log-In/Sign-Up" stroke="none" stroke-width="1" fill="none" fill-rule="evenodd" opacity="0.400000006">
        <g id="0.1---LogIn-" fill="#595959" fill-rule="nonzero">
            <g id="Elements">
                <g id="Background">
                    <g id="Illustration" style="mix-blend-mode: overlay;" transform="translate(910.543528, 196.492448) rotate(91.000000) translate(-910.543528, -196.492448) translate(-190.456472, -930.007552)">
                        <g id="1" style="mix-blend-mode: overlay;">
                            <g id="Group" opacity="0.8" transform="translate(414.137615, 0.000000)">
                                <g id="triangle36-4" transform="translate(252.522936, 536.669663)">
                                    <path d="M5.80802752,230.109775 C5.23747511,230.109775 4.69806219,229.848993 4.3433945,229.400966 C3.83805325,228.744805 3.83805325,227.829442 4.3433945,227.173281 L150.402661,4.65788764 C150.788319,4.0114908 151.530874,3.66947512 152.27133,3.79719101 L453.228165,49.9204045 C454.060175,50.0708348 454.69599,50.7493403 454.793807,51.5911685 C454.882713,52.4339895 454.410979,53.2358596 453.632202,53.5657079 L6.51509174,230.109775 L5.80802752,230.109775 Z M152.725872,7.74626966 L10.6564679,224.338045 L445.551468,52.9075281 L152.725872,7.74626966 Z" id="Shape"></path>
                                </g>
                                <g id="triangle36-5" transform="translate(398.986239, 435.411236)">
                                    <path d="M306.310321,155.077281 L306.007294,155.077281 L5.05045872,108.954067 C4.51042067,108.867813 4.03273431,108.554709 3.73733945,108.093371 C3.5353211,107.60733 3.5353211,107.060535 3.73733945,106.574494 L34.4441284,2.58208989 C34.5925938,2.01851196 35.0080458,1.56417319 35.5552294,1.36698876 C36.0643371,1.11377728 36.6622684,1.11377728 37.1713761,1.36698876 L307.118394,151.28009 C307.921497,151.52352 308.473769,152.2617 308.482018,153.102742 C308.455456,154.15406 307.611575,155.000023 306.562844,155.026652 L306.310321,155.077281 Z M7.77770642,105.511281 L296.158899,149.710584 L37.3733945,5.87298876 L7.77770642,105.511281 Z" id="Shape"></path>
                                </g>
                                <g id="triangle36-8" transform="translate(141.412844, 855.633708)">
                                    <path d="M6.61610092,398.249393 C6.20517836,398.231953 5.80543808,398.109992 5.45449541,397.894989 C4.85008153,397.434857 4.5729285,396.660882 4.74743119,395.920449 L90.9587615,5.77173034 C91.1107238,4.86564701 91.9116869,4.21461492 92.8274312,4.25125349 L658.478807,23.2894382 C659.325399,23.291793 660.058339,23.8795915 660.246468,24.7070562 C660.468406,25.5411786 660.092979,26.419337 659.337385,26.8334831 L7.82821101,397.996247 C7.45938449,398.20258 7.03643605,398.290912 6.61610092,398.249393 Z M94.2920642,8.10067416 L9.34334862,392.578921 L651.559679,26.8334831 L94.2920642,8.10067416 Z" id="Shape"></path>
                                </g>
                                <g id="triangle36-9" transform="translate(232.321101, 759.438202)">
                                    <path d="M567.67156,123.282135 L567.67156,123.282135 L2.02018349,104.245551 C1.44283997,104.226273 0.904868844,103.947326 0.555550459,103.486112 C0.211498164,103.040936 0.0990120869,102.458324 0.252522936,101.916607 L24.343211,5.06292135 C24.6359421,4.08803876 25.6200885,3.49609382 26.6159174,3.69593258 L567.67156,119.484944 C568.663952,119.538797 569.43923,120.361928 569.43923,121.358225 C569.43923,122.364175 568.671907,123.202722 567.67156,123.282135 L567.67156,123.282135 Z M4.29288991,100.549618 L546.106101,118.725506 L27.2724771,7.79689888 L4.29288991,100.549618 Z" id="Shape"></path>
                                </g>
                                <g id="triangle36-10" transform="translate(252.522936, 582.235955)">
                                    <path d="M547.469725,300.484382 L547.065688,300.484382 L5.40399083,184.543483 C4.5766118,184.379658 3.97022634,183.666969 3.9393578,182.82209 C3.87343932,181.997071 4.34125795,181.222246 5.1009633,180.89818 L452.06656,4.506 C452.556011,4.32807111 453.092246,4.32807111 453.581697,4.506 C454.043266,4.76455195 454.400465,5.17634441 454.591789,5.67047191 L548.833349,297.345371 C549.04799,297.678488 549.170035,298.063006 549.18986,298.459213 C549.216527,298.978008 549.023868,299.48482 548.657329,299.852265 C548.290789,300.219709 547.785224,300.412843 547.267706,300.383124 L547.469725,300.484382 Z M12.1211009,182.214539 L544.388945,295.927753 L451.511009,8.86011236 L12.1211009,182.214539 Z" id="Shape"></path>
                                </g>
                                <g id="triangle36-11" transform="translate(797.972477, 561.984270)">
                                    <path d="M2.02018349,320.736067 C1.3873683,320.730617 0.797911199,320.412785 0.444549113,319.886494 C0.0911870267,319.360204 0.0193485366,318.693115 0.252522936,318.103348 L126.513991,4.20222472 C126.836341,3.43493257 127.614442,2.96255508 128.442086,3.03169565 C129.269731,3.10083622 129.959104,3.69580494 130.150321,4.506 L201.109266,308.281281 C201.249296,308.847052 201.118615,309.445928 200.755734,309.901416 C200.412193,310.335797 199.89438,310.595343 199.341606,310.610225 L2.3737156,320.736067 L2.02018349,320.736067 Z M127.625092,11.391573 L4.84844037,316.786989 L196.765872,307.015551 L127.625092,11.391573 Z" id="Shape"></path>
                                </g>
                                <g id="triangle36-12" transform="translate(702.013761, 561.984270)">
                                    <path d="M97.9788991,320.736067 L97.9788991,320.736067 C97.1960009,320.679471 96.5213538,320.162292 96.2617431,319.419708 L1.81816514,27.1878876 C1.64156978,26.6382335 1.73524944,26.0372042 2.07068807,25.5677528 C2.360762,25.0777684 2.86817142,24.7575 3.43431193,24.7070562 L223.987844,3.24026966 C224.642909,3.15067114 225.291107,3.44603384 225.654495,3.99970787 C225.979279,4.56363826 225.979279,5.25842916 225.654495,5.82235955 L99.3930275,319.723483 C99.1311272,320.286027 98.5946664,320.670159 97.9788991,320.736067 L97.9788991,320.736067 Z M6.06055046,28.2511011 L97.9788991,313.242944 L220.85656,7.34123596 L6.06055046,28.2511011 Z" id="Shape"></path>
                                </g>
                                <g id="triangle36-13" transform="translate(141.412844, 875.885393)">
                                    <path d="M6.61610092,377.998019 C5.78554916,378.012811 5.04476056,377.476477 4.79793578,376.681348 C4.49140218,375.828068 4.85731113,374.878673 5.65651376,374.453663 L657.165688,3.29089888 C657.819976,2.8408315 658.683097,2.8408315 659.337385,3.29089888 L970.546651,263.980719 C971.137181,264.4495 971.378208,265.234772 971.152706,265.955258 C970.924323,266.686755 970.294282,267.219664 969.53656,267.322247 L7.0706422,377.998019 L6.61610092,377.998019 Z M658.125275,7.23997753 L15.6059174,373.137303 L965.092156,264.233865 L658.125275,7.23997753 Z" id="Shape"></path>
                                </g>
                                <g id="triangle36-14" transform="translate(792.922018, 865.759551)">
                                    <path d="M318.027385,277.650607 C317.5829,277.644028 317.154476,277.482973 316.815275,277.194944 L5.60600917,16.5051236 C4.99840739,16.003294 4.75814637,15.1803766 4.99995413,14.4293258 C5.26454925,13.6982855 5.94214685,13.1988225 6.71711009,13.1635955 L203.685,3.03763085 C204.468089,3.02905495 205.181926,3.48624332 205.503165,4.20222472 L319.492018,274.460966 C319.751098,274.81318 319.892511,275.238465 319.899035,275.676067 C319.925702,276.194862 319.733043,276.701674 319.366503,277.069119 C318.999963,277.436563 318.494398,277.629697 317.976881,277.599978 L318.027385,277.650607 Z M11.7170642,16.7076404 L313.22945,269.246157 L202.624404,6.98683146 L11.7170642,16.7076404 Z" id="Shape"></path>
                                </g>
                                <g id="triangle36-15" transform="translate(994.940367, 865.759551)">
                                    <path d="M235.250367,281.802202 L235.250367,281.802202 L116.009037,277.650607 C115.277298,277.613199 114.630654,277.161396 114.342385,276.486135 L0.151513761,5.77173034 C-0.213748187,4.89969545 0.107430044,3.89085368 0.909082569,3.3921573 C1.70451409,2.90055162 2.73991474,3.07354422 3.33330275,3.79719101 L236.765505,278.663191 C237.135397,279.305445 237.135397,280.096735 236.765505,280.738989 C236.475346,281.330059 235.903684,281.73121 235.250367,281.802202 Z M117.271651,273.904045 L231.007982,277.853124 L8.38376147,15.644427 L117.271651,273.904045 Z" id="Shape"></path>
                                </g>
                                <g id="triangle36-19" transform="translate(429.288991, 303.775281)">
                                    <path d="M276.007569,286.713236 C275.68793,286.708195 275.374925,286.621034 275.098486,286.46009 L4.84844037,136.344472 C4.23373677,136.013104 3.84694344,135.373321 3.83834862,134.673708 C3.8776168,133.969666 4.27936715,133.336786 4.89894495,133.002944 L266.209679,3.59467416 C266.777288,3.28863076 267.460235,3.28863076 268.027844,3.59467416 C268.595411,3.91077114 268.944432,4.51334583 268.936927,5.16417978 L277.878974,284.637438 C277.904002,285.151563 277.719451,285.654479 277.365953,286.028004 C277.012455,286.401529 276.521179,286.61273 276.007569,286.611978 L276.007569,286.713236 Z M9.8483945,134.825596 L273.987385,281.650315 L265.250092,8.2525618 L9.8483945,134.825596 Z" id="Shape"></path>
                                </g>
                                <g id="triangle36-20" transform="translate(429.288991, 273.397753)">
                                    <path d="M5.75752294,166.975146 C5.33773962,166.964441 4.93171692,166.822867 4.59591743,166.570112 C4.0190665,166.135016 3.74380761,165.405751 3.88885321,164.696831 L36.1612844,2.68334831 C36.341197,1.68463789 37.2817264,1.01117339 38.2824771,1.16447191 L267.32078,33.921573 C268.141022,34.0400755 268.792743,34.6729872 268.936927,35.4910787 C269.033913,36.3208143 268.6127,37.1251031 267.87633,37.5162472 L6.61610092,166.873888 C6.34267968,166.978358 6.04766464,167.013151 5.75752294,166.975146 L5.75752294,166.975146 Z M39.4945872,4.96166292 L8.38376147,161.507191 L260.906697,36.5542921 L39.4945872,4.96166292 Z" id="Shape"></path>
                                </g>
                                <g id="triangle36-21" transform="translate(691.912844, 303.775281)">
                                    <path d="M13.3837156,286.713236 C12.9123357,286.720007 12.457787,286.537739 12.1211009,286.206944 C11.7235832,285.888304 11.4990241,285.400559 11.5150459,284.890584 L2.52492829,5.36669663 C2.51112022,4.56535911 2.99403748,3.83919573 3.73733945,3.54404494 C4.47951434,3.23890738 5.33315958,3.44265779 5.85853211,4.05033708 L235.300872,262.259326 C235.789963,262.793459 235.927668,263.562562 235.654404,264.233865 C235.388284,264.891531 234.790553,265.355432 234.088761,265.448966 L13.5857339,286.915753 L13.3837156,286.713236 Z M6.51509174,10.4802472 L15.2018807,282.713528 L229.99789,261.803663 L6.51509174,10.4802472 Z" id="Shape"></path>
                                </g>
                                <g id="triangle36-22" transform="translate(464.642202, 227.831461)">
                                    <path d="M231.715046,83.2850562 L231.412018,83.2850562 L2.3737156,50.5785843 C1.41402241,50.4255001 0.719922469,49.5774783 0.756108173,48.6040449 L2.72724771,4.10096629 C2.75936896,3.50121497 3.06904894,2.9509117 3.56449094,2.6131798 C4.05993293,2.2754479 4.68428615,2.18904131 5.25247706,2.37957303 L232.068578,79.5384944 C232.997192,79.7415933 233.637635,80.5954716 233.574412,81.5461647 C233.511188,82.4968578 232.763345,83.2579553 231.816055,83.3356854 C231.816055,83.3356854 231.715046,83.2850562 231.715046,83.2850562 Z M4.44440367,46.9839101 L211.513211,76.602 L6.11105505,6.78431461 L4.44440367,46.9839101 Z" id="Shape"></path>
                                </g>
                                <g id="triangle36-23" transform="translate(464.642202, 141.761798)">
                                    <path d="M231.715046,169.354719 C231.515585,169.400293 231.308452,169.400293 231.108991,169.354719 L3.83834862,92.1451685 C3.11696505,91.8984984 2.61732197,91.2373421 2.57447728,90.4744045 C2.54864118,89.7125502 2.96145835,89.0031173 3.63633028,88.6517528 L177.927661,4.65788764 C178.426892,4.42907164 178.999967,4.42551153 179.501989,4.64810746 C180.00401,4.8707034 180.386919,5.29814605 180.553899,5.82235955 L233.179679,166.468854 C233.401518,166.798523 233.524228,167.185133 233.533211,167.582697 C233.533211,168.645243 232.673967,169.506607 231.614037,169.506607 L231.715046,169.354719 Z M9.49486239,89.9174831 L228.735275,164.291798 L177.776147,8.80948315 L9.49486239,89.9174831 Z" id="Shape"></path>
                                </g>
                                <g id="triangle36-24" transform="translate(691.912844, 0.000000)">
                                    <path d="M233.886743,569.02173 C233.345127,569.006657 232.833623,568.768587 232.472615,568.363551 L3.03027523,310.154562 C2.69513141,309.759562 2.5155198,309.255409 2.52485531,308.736944 C2.57425514,308.220544 2.82921883,307.745872 3.23229358,307.420584 L371.309725,5.31606742 C371.979743,4.85719692 372.861909,4.85719692 373.531927,5.31606742 C374.202218,5.77498749 374.523038,6.59911673 374.34,7.39186517 L235.755413,567.553483 C235.566786,568.243178 235.029282,568.782009 234.341284,568.971101 L233.886743,569.02173 Z M7.0706422,309.293865 L232.826147,563.148742 L369.188532,12.0497528 L7.0706422,309.293865 Z" id="Shape"></path>
                                </g>
                                <g id="triangle36-25" transform="translate(641.408257, 5.062921)">
                                    <path d="M54.9489908,306.053596 L54.3934404,306.053596 C53.8021055,305.875726 53.3322359,305.423538 53.1308257,304.838494 L0.35353211,143.432562 C0.178113334,142.963203 0.20324471,142.442141 0.423014988,141.991937 C0.642785266,141.541733 1.03779689,141.202124 1.51513761,141.052989 L422.420367,0.101258427 C423.297949,-0.181542731 424.252138,0.201074767 424.693073,1.01258427 C425.090046,1.82789568 424.881714,2.80947353 424.188028,3.3921573 L56.1105963,305.496674 C55.8134519,305.830814 55.394981,306.031446 54.9489908,306.053596 Z M4.44440367,144.040112 L55.8075688,300.990674 L413.784083,7.34123596 L4.44440367,144.040112 Z" id="Shape"></path>
                                </g>
                                <g id="triangle36-26" transform="translate(146.463303, 1139.157303)">
                                    <path d="M961.607339,544.010899 C961.340144,544.054132 961.066461,544.054132 960.799266,544.010899 L1.21211009,114.928315 C0.456116011,114.552198 0.0130274949,113.744595 0.101009176,112.903146 C0.230805622,112.049293 0.912319117,111.3868 1.76766055,111.283011 L964.738624,0.810067416 C965.268193,0.757371547 965.796497,0.921732646 966.203257,1.26573034 C966.610119,1.64675462 966.846773,2.17597799 966.859817,2.73397753 L963.678028,542.289506 C963.707015,542.932435 963.375817,543.537875 962.81945,543.859011 C962.444977,544.048259 962.016759,544.101918 961.607339,544.010899 L961.607339,544.010899 Z M8.63628441,113.91573 L959.486147,539.201124 L962.566927,4.65788764 L8.63628441,113.91573 Z" id="Shape"></path>
                                </g>
                                <g id="triangle36-28" transform="translate(1060.596330, 5.062921)">
                                    <path d="M402.269037,543.453978 C401.659602,543.453978 401.084288,543.171469 400.703394,542.694539 L2.32321101,3.03775281 C1.76386162,2.31922872 1.80155903,1.30140556 2.41251947,0.626440758 C3.02347991,-0.0485240427 4.03037239,-0.184722257 4.79793578,0.303775281 L528.631514,311.622809 C529.499068,312.148433 529.790374,313.271604 529.288073,314.15427 L403.885183,542.441393 C403.597284,543.026406 403.019459,543.412574 402.370046,543.453978 L402.269037,543.453978 Z M10.9089908,8.35382022 L402.016514,538.036652 L525.096193,313.951753 L10.9089908,8.35382022 Z" id="Shape"></path>
                                </g>
                                <g id="triangle36-29" transform="translate(919.183486, 5.062921)">
                                    <path d="M6.61610092,563.958809 C6.0455485,563.958809 5.50613558,563.698027 5.15146789,563.25 C4.77997496,562.778909 4.64921473,562.160947 4.79793578,561.579236 L143.433028,1.46824719 C143.620889,0.7597978 144.1848,0.213987881 144.897661,0.0506292137 C145.619209,-0.0906682886 146.359199,0.182632326 146.816835,0.759438202 L545.247523,540.416225 C545.65418,540.988398 545.717391,541.737287 545.412417,542.369823 C545.107444,543.002359 544.482784,543.417957 543.78289,543.453978 L6.76761468,563.958809 L6.61610092,563.958809 Z M146.109771,6.27802247 L9.09082569,560.06036 L539.995046,539.808674 L146.109771,6.27802247 Z" id="Shape"></path>
                                </g>
                                <g id="triangle36-30" transform="translate(1101.000000, 1675.826966)">
                                    <path d="M60.3024771,82.9812811 C59.680485,82.9812811 59.0969355,82.6796156 58.7368349,82.1712135 L5.25247706,6.22739326 C4.78001451,5.5603551 4.78001451,4.66674603 5.25247706,3.99970787 C5.71813251,3.3406856 6.55268373,3.05501369 7.32316514,3.29089888 L62.3731651,21.0111236 C63.1468662,21.2851618 63.6700359,22.0113381 63.6862844,22.8337753 L62.1206422,80.9561124 C62.1134554,81.7700438 61.5827797,82.4861776 60.8075229,82.7281348 L60.3024771,82.9812811 Z M11.616055,8.80948315 L58.5348165,75.3362697 L59.8984404,24.3020225 L11.616055,8.80948315 Z" id="Shape"></path>
                                </g>
                                <g id="triangle36-31" transform="translate(1101.000000, 1255.604494)">
                                    <path d="M61.8176147,445.081416 L61.2620642,445.081416 L6.21206422,427.563708 C5.31007955,427.253291 4.77229647,426.326022 4.94944954,425.386652 L79.9487615,5.16417978 C80.1278106,4.18141501 81.0274155,3.4995475 82.0194495,3.59467416 C83.007648,3.72270116 83.7448239,4.57037182 83.7366735,5.56921348 L63.5347706,443.613169 C63.5280743,444.207463 63.2246284,444.758816 62.7266972,445.081416 C62.4280428,445.154401 62.1162691,445.154401 61.8176147,445.081416 Z M8.98981651,424.171551 L60.0499541,440.626045 L78.6356422,33.921573 L8.98981651,424.171551 Z" id="Shape"></path>
                                </g>
                                <g id="triangle36-32" transform="translate(1106.050459, 1139.157303)">
                                    <path d="M2.02018349,544.010899 L2.02018349,544.010899 C1.04773852,543.931602 0.299815611,543.115677 0.303017217,542.137618 L3.03027523,2.27831461 C3.02168204,1.43164726 3.58069309,0.684459955 4.39389908,0.455662921 C5.21175131,0.259169943 6.06383468,0.604911891 6.51509174,1.31635955 L78.3831193,120.548157 C78.6412614,120.934715 78.7323511,121.40955 78.6356422,121.864517 L3.63633028,542.086989 C3.67102124,543.049404 2.97212945,543.881386 2.02018349,544.010899 Z M7.0706422,9.31577528 L4.09087156,520.012652 L75.1003211,122.168292 L7.0706422,9.31577528 Z" id="Shape"></path>
                                </g>
                                <g id="triangle36-33" transform="translate(1106.050459, 1139.157303)">
                                    <path d="M76.7669725,123.484652 C76.1078943,123.479231 75.4976984,123.135148 75.1508257,122.573326 L3.28279817,3.34152809 C2.93094892,2.7306035 2.93094892,1.97791336 3.28279817,1.36698876 C3.63907372,0.789741085 4.2724269,0.443423235 4.94944954,0.455348924 L124.19078,4.60725843 C124.815585,4.64225939 125.391087,4.95863605 125.756422,5.46795506 C126.007069,6.03190788 126.007069,6.6760247 125.756422,7.23997753 L78.3831193,122.32018 C78.0940392,122.972705 77.4760818,123.417957 76.7669725,123.484652 L76.7669725,123.484652 Z M8.33325688,4.35411236 L76.463945,117.409146 L121.362523,8.30319101 L8.33325688,4.35411236 Z" id="Shape"></path>
                                </g>
                                <g id="triangle36-37" transform="translate(989.889908, 729.060674)">
                                    <path d="M240.300826,418.501079 C239.7442,418.488003 239.216279,418.250765 238.836193,417.842899 L5.45449541,142.92627 C5.04981695,142.471999 4.89822027,141.84512 5.05045872,141.255506 C5.19978912,140.680912 5.61201821,140.211314 6.16155963,139.989775 L318.279908,4.60725843 C318.883175,4.2322239 319.64632,4.2322239 320.249587,4.60725843 C320.79918,5.03818788 321.054293,5.74639773 320.906147,6.42991011 L242.169495,416.526539 C242.025599,417.233589 241.499118,417.800463 240.805872,417.994787 L240.300826,418.501079 Z M9.99990826,142.419978 L239.391743,412.374944 L316.714266,9.51829213 L9.99990826,142.419978 Z" id="Shape"></path>
                                </g>
                                <g id="triangle36-38" transform="translate(924.233945, 561.984270)">
                                    <path d="M72.7266055,310.660854 C72.4594103,310.709243 72.1857273,310.709243 71.9185321,310.660854 C71.4005253,310.397843 71.0291539,309.913869 70.9084404,309.344494 L0.202018349,5.56921348 C0.00744915532,4.87937835 0.246663626,4.13998033 0.808073394,3.69593258 C1.3396969,3.19795157 2.12139883,3.07739297 2.77775229,3.3921573 L385.90555,171.683663 C386.603873,171.9698 387.06207,172.648808 387.067286,173.405056 C387.076181,174.16562 386.613118,174.851836 385.90555,175.126449 L73.7366972,310.508966 C73.4241548,310.664322 73.070862,310.717447 72.7266055,310.660854 L72.7266055,310.660854 Z M4.49490826,8.40444944 L73.888211,306.053596 L379.946009,173.303798 L4.49490826,8.40444944 Z" id="Shape"></path>
                                </g>
                                <g id="triangle36-39" transform="translate(919.183486, 541.732584)">
                                    <path d="M389.743899,195.580652 C389.493422,195.626223 389.236807,195.626223 388.98633,195.580652 L5.85853211,27.3397753 C5.08103366,26.9565462 4.65607977,26.0986276 4.82144895,25.2460589 C4.98681812,24.3934903 5.70149775,23.7577139 6.56559633,23.6944719 L543.580872,3.18964045 C544.340364,3.11064261 545.060656,3.5438841 545.348532,4.25285393 C545.757063,4.86579592 545.757063,5.66508048 545.348532,6.27802247 L391.208532,194.669326 C390.8976,195.19418 390.351067,195.534245 389.743899,195.580652 L389.743899,195.580652 Z M14.9493578,26.9853708 L389.188349,191.327798 L539.540505,6.93620225 L14.9493578,26.9853708 Z" id="Shape"></path>
                                </g>
                            </g>
                            <g id="triangle36-40" opacity="0.3" transform="translate(1333.321101, 2025.168539)">
                                <path d="M115.200963,145.407101 C114.659347,145.392028 114.147843,145.153957 113.786835,144.748921 L2.67674312,19.2391011 C2.20485444,18.694339 2.08698883,17.926322 2.3737156,17.2645618 C2.62635969,16.6050246 3.23645359,16.1512573 3.9393578,16.1000899 L138.382569,3.49341573 C138.970931,3.43629317 139.551562,3.66160784 139.948211,4.10096629 C140.354262,4.534362 140.523915,5.13906072 140.402752,5.72110112 L117.069633,144.040112 C116.967563,144.778247 116.427544,145.379749 115.706009,145.558989 L115.200963,145.407101 Z M8.03022936,19.4922472 L114.089862,139.280966 L136.41289,7.64501124 L8.03022936,19.4922472 Z" id="Shape"></path>
                            </g>
                            <g id="triangle36-42" opacity="0.3" transform="translate(984.839450, 1949.224719)">
                                <path d="M209.493028,111.738674 C209.211746,111.81384 208.915731,111.81384 208.63445,111.738674 L2.02018349,8.30319101 C1.16714268,7.87406754 0.758284977,6.88175891 1.06059633,5.97424719 C1.41242911,5.05997779 2.3799131,4.54271305 3.33330275,4.75914607 L353.178578,92.0945393 C354.080106,92.2446409 354.74108,93.026373 354.74108,93.9425056 C354.74108,94.8586382 354.080106,95.6403703 353.178578,95.7904719 L210.048578,111.738674 L209.493028,111.738674 Z M19.0907339,12.6573034 L209.84656,107.890854 L341.86555,93.208382 L19.0907339,12.6573034 Z" id="Shape"></path>
                            </g>
                            <g id="triangle36-43" opacity="0.3" transform="translate(909.082569, 1544.191011)">
                                <path d="M428.379908,500.82418 L427.874862,500.82418 L78.0800917,413.539416 C77.3539421,413.385249 76.7941846,412.80407 76.6659633,412.071169 L0.202018349,5.11355056 C0.0666080931,4.26386813 0.495668287,3.42411208 1.26261468,3.03775281 C2.03217096,2.68181795 2.94431864,2.88963579 3.48481651,3.54404494 L429.794037,497.735798 C430.29082,498.413592 430.29082,499.336318 429.794037,500.014112 C429.476413,500.492523 428.952318,500.792745 428.379908,500.82418 L428.379908,500.82418 Z M80.1507798,410.096629 L423.026422,495.66 L5.25247706,11.2903146 L80.1507798,410.096629 Z" id="Shape"></path>
                            </g>
                            <g id="triangle36-44" opacity="0.3" transform="translate(838.376147, 1544.191011)">
                                <path d="M2.62623853,420.931281 C2.08462221,420.916207 1.57311808,420.678137 1.21211009,420.273101 C0.835448214,419.843649 0.668875725,419.268484 0.757568807,418.703596 L70.9084404,4.40474157 C71.077317,3.50123278 71.8601792,2.84370259 72.7771101,2.83523596 C73.6785284,2.83523596 74.456013,3.4707137 74.6457798,4.35411236 L151.109725,411.31173 C151.196929,411.852599 151.049962,412.405083 150.705688,412.830607 C150.377909,413.257205 149.878735,413.516674 149.342064,413.539416 L2.87876147,420.931281 L2.62623853,420.931281 Z M72.7266055,15.4925393 L4.74743119,416.982202 L146.816835,409.843483 L72.7266055,15.4925393 Z" id="Shape"></path>
                            </g>
                            <g id="triangle36-45" opacity="0.3" transform="translate(1444.431193, 2025.168539)">
                                <path d="M350.501835,224.084899 L350.047294,224.084899 L3.73733945,145.407101 C2.7542107,145.180126 2.11422603,144.228842 2.27270642,143.230045 L25.6563303,5.11355056 C25.7606032,4.48167295 26.1796748,3.94699295 26.7674312,3.69593258 C27.3350401,3.38988919 28.0179875,3.38988919 28.5855963,3.69593258 L351.208899,220.338337 C351.964197,220.597935 352.471514,221.309931 352.471514,222.11036 C352.471514,222.616082 352.267903,223.100395 351.906459,223.453196 C351.545015,223.805996 351.056633,223.997309 350.552339,223.98364 L350.501835,224.084899 Z M6.26256881,142.014944 L340.905963,217.958764 L28.8381193,8.45507865 L6.26256881,142.014944 Z" id="Shape"></path>
                            </g>
                            <g id="triangle36-46" opacity="0.3" transform="translate(1469.683486, 1959.350562)">
                                <path d="M325.249541,289.905602 C324.873572,289.910906 324.503933,289.805034 324.188945,289.599101 L1.21211009,72.7541798 C0.552374786,72.335888 0.244449477,71.5333066 0.454541284,70.7796404 C0.608110457,69.9846786 1.26644122,69.3865942 2.07068807,69.3113933 L539.085963,4.45537079 C539.835449,4.35192613 540.573202,4.71171865 540.954633,5.36669663 C541.355701,6.0184909 541.355701,6.84132933 540.954633,7.4931236 L326.916193,289.194067 C326.498562,289.67418 325.884154,289.935481 325.249541,289.905602 L325.249541,289.905602 Z M7.57568807,72.4504045 L324.795,285.447506 L535.096101,8.75885393 L7.57568807,72.4504045 Z" id="Shape"></path>
                            </g>
                            <g id="triangle36-47" opacity="0.3" transform="translate(1239.362385, 1294.044944)">
                                <path d="M232.341284,738.464831 C231.520872,738.448543 230.796483,737.924082 230.523119,737.148472 L0.474724771,3.0248764 C0.217458157,2.21107097 0.52591661,1.32464142 1.23229358,0.847820225 C1.92426565,0.341260194 2.86353252,0.341260194 3.55550459,0.847820225 L770.821193,670.216652 C771.39097,670.701389 771.617871,671.479813 771.3981,672.195831 C771.178329,672.91185 770.554152,673.427757 769.811101,673.507551 L232.795826,738.464831 L232.341284,738.464831 Z M6.33325688,8.08779775 L233.906927,734.414494 L765.114174,670.267281 L6.33325688,8.08779775 Z" id="Shape"></path>
                            </g>
                            <g id="triangle36-48" opacity="0.3" transform="translate(1237.362385, 1291.044944)">
                                <path d="M100.049587,753.970247 C99.116658,753.957352 98.3281474,753.273714 98.1809174,752.350112 L2.62623853,5.51858427 C2.47059224,4.53163111 3.11507067,3.59594532 4.09087156,3.3921573 C5.05928477,3.19148879 6.02126587,3.76133488 6.31307339,4.70851685 L236.361468,738.832112 C236.538063,739.381766 236.444384,739.982796 236.108945,740.452247 C235.802386,740.925811 235.303815,741.240501 234.745321,741.312944 L100.251606,753.868989 L100.049587,753.970247 Z M9.14133028,26.2765618 L101.766743,750.274315 L232.068578,738.072674 L9.14133028,26.2765618 Z" id="Shape"></path>
                            </g>
                            <g id="triangle36-49" opacity="0.3" transform="translate(909.082569, 1291.044944)">
                                <path d="M428.379908,753.972989 C427.816291,753.990446 427.275234,753.747304 426.915275,753.312067 L0.656559633,259.120315 C0.31340871,258.712551 0.149452193,258.182943 0.202018349,257.652067 C0.261599817,257.138937 0.51454102,256.66803 0.909082569,256.335708 L331.613119,3.7465618 C332.148863,3.34008805 332.857639,3.2440711 333.481789,3.49341573 C334.110552,3.75702935 334.552687,4.33515119 334.643394,5.01229213 L430.147569,751.286899 C430.223345,751.551579 430.223345,751.832286 430.147569,752.096966 C430.14832,752.611844 429.937638,753.104332 429.565033,753.458702 C429.192427,753.813072 428.690749,753.998079 428.17789,753.972989 L428.379908,753.972989 Z M4.79793578,258.15836 L425.652661,746.07209 L331.310092,8.75885393 L4.79793578,258.15836 Z" id="Shape"></path>
                            </g>
                            <g id="triangle36-50" opacity="0.3" transform="translate(777.770642, 1042.961798)">
                                <path d="M464.086651,255.424382 L464.086651,255.424382 L6.81811927,234.717034 C5.99533093,234.650886 5.29544608,234.089597 5.05045872,233.299416 C4.86192905,232.494418 5.20759642,231.658693 5.9090367,231.223618 L361.713853,3.3921573 C362.222961,3.13894582 362.820892,3.13894582 363.33,3.3921573 C363.854384,3.55797888 364.279301,3.94690429 364.491606,4.45537079 L465.955321,252.842292 C466.261023,253.393217 466.261023,254.06339 465.955321,254.614315 C465.538403,255.220582 464.812857,255.535106 464.086651,255.424382 L464.086651,255.424382 Z M12.8786697,231.172989 L461.20789,251.424674 L361.764358,7.8981573 L12.8786697,231.172989 Z" id="Shape"></path>
                            </g>
                            <g id="triangle36-51" opacity="0.3" transform="translate(777.770642, 1270.793258)">
                                <path d="M133.33211,280.03018 L132.877569,280.03018 C132.3219,279.909152 131.854716,279.534482 131.614954,279.017596 L5.05045872,5.6198427 C4.7256748,5.0559123 4.7256748,4.36112141 5.05045872,3.79719101 C5.41891388,3.23928171 6.05005821,2.91334444 6.71711009,2.93533867 L464.036147,23.6438427 C464.83496,23.6911008 465.520688,24.2302572 465.756806,24.9967172 C465.992925,25.7631773 465.729872,26.5960627 465.096743,27.0866292 L134.392706,279.675775 C134.07947,279.891574 133.71186,280.014413 133.33211,280.03018 L133.33211,280.03018 Z M9.79788991,6.63242697 L134.039174,274.967258 L458.733165,26.8841124 L9.79788991,6.63242697 Z" id="Shape"></path>
                            </g>
                            <g id="triangle36-52" opacity="0.3" transform="translate(1239.362385, 777.626966)">
                                <path d="M769.659587,1189.92621 L769.659587,1189.92621 C769.213468,1189.92621 768.782065,1189.76568 768.447477,1189.46987 L1.23229358,520.101034 C0.648224557,519.582614 0.446868586,518.755017 0.727247706,518.025236 L193.654771,1.60725843 C193.917189,0.903983473 194.573154,0.425741081 195.321422,0.388599191 C196.073493,0.345114646 196.776573,0.768003366 197.089083,1.45537079 L771.023211,1186.73589 C771.379454,1187.08055 771.578768,1187.55594 771.578768,1188.05225 C771.578768,1188.55797 771.375151,1189.04228 771.013707,1189.39508 C770.652263,1189.74788 770.163881,1189.9392 769.659587,1189.92621 L769.659587,1189.92621 Z M4.71711009,518.126494 L763.801055,1180.50849 L195.62445,6.87269663 L4.71711009,518.126494 Z" id="Shape"></path>
                            </g>
                            <g id="triangle36-53" opacity="0.3" transform="translate(1136.353211, 774.626966)">
                                <path d="M105.504083,523.759218 C104.735405,523.759218 104.039846,523.302743 103.736422,522.594742 L2.27270642,274.258449 C1.98403248,273.513291 2.18507733,272.666819 2.77775229,272.132022 L297.118486,3.79719101 C297.772951,3.21975452 298.733448,3.15710254 299.457038,3.64465032 C300.180629,4.13219809 300.485479,5.04742792 300.199266,5.87298876 L107.271743,522.290966 C107.002366,523.010899 106.321491,523.492703 105.554587,523.506067 L105.504083,523.759218 Z M6.31307339,274.005303 L105.403073,516.671124 L293.886193,11.9484944 L6.31307339,274.005303 Z" id="Shape"></path>
                            </g>
                            <g id="triangle36-54" opacity="0.3" transform="translate(1136.353211, 622.739326)">
                                <path d="M4.04036697,427.108045 C3.62058366,427.09734 3.21456096,426.955766 2.87876147,426.703011 C2.15145782,426.09347 1.96046009,425.051028 2.42422018,424.22218 L248.482569,1.06321348 C248.881934,0.427960346 249.606164,0.0747631346 250.351239,0.15188764 C251.082129,0.252532952 251.690769,0.764265149 251.916881,1.46824719 L299.997248,156.343011 C300.261176,157.042098 300.059128,157.832029 299.492202,158.317551 L5.1009633,426.652382 C4.80822919,426.918924 4.43479084,427.079364 4.04036697,427.108045 L4.04036697,427.108045 Z M249.59367,6.88557303 L12.1211009,415.513955 L296.512431,156.343011 L249.59367,6.88557303 Z" id="Shape"></path>
                            </g>
                            <g id="triangle36-56" opacity="0.3" transform="translate(984.839450, 1949.224719)">
                                <path d="M127.221055,203.276292 L127.221055,203.276292 C126.62823,203.225865 126.089907,202.909517 125.756422,202.415596 L1.31311927,7.64501124 C0.816336214,6.96721657 0.816336214,6.04449129 1.31311927,5.36669663 C1.8666836,4.72997983 2.77681826,4.54335654 3.5353211,4.91103371 L210.301101,108.144 C210.821641,108.428934 211.190985,108.92878 211.311193,109.510989 C211.415839,110.09235 211.248254,110.689677 210.856651,111.131124 L128.584679,202.668742 C128.230502,203.047368 127.73874,203.266468 127.221055,203.276292 Z M8.08073394,11.391573 L127.473578,198.264 L206.412248,110.422315 L8.08073394,11.391573 Z" id="Shape"></path>
                            </g>
                            <g id="triangle36-57" opacity="0.3" transform="translate(838.376147, 1949.224719)">
                                <path d="M273.684358,203.276292 C273.299365,203.293028 272.921739,203.166842 272.623761,202.921888 L1.5656422,15.5937978 C0.902254995,15.1308352 0.599338035,14.3008191 0.808073394,13.518 C1.05115181,12.7555452 1.72935897,12.2156399 2.52522936,12.1510112 L148.988532,4.75809197 C149.668101,4.73632841 150.306401,5.08535112 150.655183,5.67047191 L275.098486,200.390427 C275.68624,201.074199 275.68624,202.086228 275.098486,202.77 C274.715267,203.124295 274.204764,203.307068 273.684358,203.276292 Z M8.33325688,15.5937978 L267.017752,194.669326 L148.483486,8.55633708 L8.33325688,15.5937978 Z" id="Shape"></path>
                            </g>
                            <g id="triangle36-58" opacity="0.3" transform="translate(555.550459, 1544.191011)">
                                <path d="M285.451927,420.931281 C284.95912,420.921569 284.488932,420.722153 284.138807,420.37436 L1.31311927,143.230045 C0.853563529,142.784776 0.645275458,142.139388 0.757568807,141.508652 C0.905903042,140.87729 1.36160592,140.363359 1.9696789,140.141663 L354.845229,2.93649438 C355.475728,2.67905189 356.196866,2.79628186 356.713899,3.24026966 C357.2189,3.68073056 357.466189,4.34815198 357.370459,5.01229213 L287.219587,419.361775 C287.103676,420.048416 286.617369,420.613924 285.956972,420.830022 L285.451927,420.931281 Z M6.16155963,142.470607 L284.189312,414.957034 L353.178578,7.54375281 L6.16155963,142.470607 Z" id="Shape"></path>
                            </g>
                            <g id="triangle36-60" opacity="0.3" transform="translate(555.550459, 1270.793258)">
                                <path d="M2.72724771,417.438297 C2.17960399,417.449974 1.65730298,417.206879 1.31311927,416.779685 C0.872927508,416.139557 0.872927508,415.293387 1.31311927,414.653258 L227.624174,4.15159551 C227.954393,3.51084075 228.622226,3.11702864 229.34133,3.13813645 C230.057791,3.17825801 230.696281,3.60496875 231.007982,4.25285393 L357.572477,277.650607 C357.790682,278.126008 357.806291,278.670003 357.615707,279.157192 C357.425122,279.644381 357.044791,280.032722 356.562385,280.232697 L3.68683486,417.438297 L2.72724771,417.438297 Z M228.886789,9.21451685 L7.0706422,411.615506 L353.178578,277.093685 L228.886789,9.21451685 Z" id="Shape"></path>
                            </g>
                            <g id="triangle36-65" opacity="0.3" transform="translate(1432.279817, 538.669663)">
                                <path d="M576.641147,1428.89673 C575.906438,1428.97055 575.184665,1428.63811 574.772477,1428.02213 L0.787844037,241.830292 C0.540203144,241.338789 0.52081837,240.762954 0.734841733,240.255833 C0.948865096,239.748711 1.37461788,239.361669 1.89894495,239.197573 L692.296651,0.582089888 C692.909634,0.385613875 693.578447,0.481068136 694.114817,0.835235955 C694.606985,1.24414618 694.870599,1.8670563 694.827621,2.506 L578.66133,1427.16144 C578.584659,1428.02275 577.944168,1428.72696 577.095688,1428.89673 L576.641147,1428.89673 Z M5.13123853,242.083438 L575.328028,1419.92146 L690.933028,5.34123596 L5.13123853,242.083438 Z" id="Shape"></path>
                            </g>
                            <g id="triangle36-70" opacity="0.3" transform="translate(1550.490826, 455.662921)">
                                <path d="M4.24238532,180.037483 C3.26350832,180.116746 2.39045575,179.422906 2.24412529,178.449408 C2.09779483,177.475909 2.72812385,176.554973 3.68683486,176.341551 L572.014954,5.01229213 C572.578321,4.81781178 573.200993,4.91295945 573.681606,5.2654382 C574.155417,5.62657237 574.435265,6.18764977 574.439174,6.78431461 L576.612397,85.3102247 C576.648761,86.2559373 575.977003,87.0814148 575.045229,87.2341348 L4.3433945,180.037483 L4.24238532,180.037483 Z M570.752339,9.36640449 L32.3734404,171.379888 L572.772523,83.487573 L570.752339,9.36640449 Z" id="Shape"></path>
                            </g>
                            <g id="triangle36-71" opacity="0.3" transform="translate(1429.279817, 536.669663)">
                                <path d="M5.505,244.893506 C4.8830079,244.893506 4.29945847,244.59184 3.9393578,244.083438 C3.40754389,243.417564 3.40754389,242.470998 3.9393578,241.805124 L123.887752,95.9423596 C124.177753,95.5833171 124.592941,95.3480669 125.049358,95.2841798 L695.751193,2.48083146 C696.719945,2.32144645 697.646551,2.94070755 697.872385,3.89844944 C698.112205,4.85727468 697.588173,5.84225813 696.660275,6.17676404 L6.11105505,244.792247 L5.505,244.893506 Z M126.463486,98.8788539 L11.2120183,239.020517 L674.438257,9.7714382 L126.463486,98.8788539 Z" id="Shape"></path>
                            </g>
                            <g id="triangle36-72" opacity="0.3" transform="translate(1383.825688, 622.739326)">
                                <path d="M50.9591284,158.824509 L50.6055963,158.824509 C49.9154935,158.718753 49.3463302,158.226884 49.1409633,157.558112 L0.808073394,2.68334831 C0.641922086,2.06978945 0.772831773,1.41362583 1.1616055,0.911325843 C1.53779848,0.434328039 2.12154109,0.170051816 2.72724771,0.202516854 L171.008532,9.21451685 C171.717641,9.2812111 172.335599,9.72646393 172.624679,10.3789888 C172.925192,11.0312534 172.827088,11.7983544 172.372156,12.3535281 L52.5247706,158.165663 C52.1207196,158.5993 51.5508626,158.838862 50.9591284,158.824509 L50.9591284,158.824509 Z M5.25247706,4.10096629 L51.7166972,153.001483 L167.069174,12.7585618 L5.25247706,4.10096629 Z" id="Shape"></path>
                            </g>
                            <g id="triangle36-76" opacity="0.3" transform="translate(823.224771, 622.739326)">
                                <path d="M317.168807,427.108065 C316.648485,427.108065 316.152063,426.889286 315.805183,426.500494 L2.67674312,86.7784719 C2.17569688,86.2938928 2.01611139,85.5539886 2.27270642,84.905191 C2.49644508,84.2286989 3.08373354,83.7380842 3.78784404,83.6394607 L563.126147,0.15188764 C563.837142,0.0491370893 564.543952,0.364050039 564.944312,0.961955056 C565.327407,1.58239101 565.327407,2.36668764 564.944312,2.9871236 L318.885963,426.14609 C318.57458,426.678611 318.032693,427.034517 317.42133,427.108065 L317.168807,427.108065 Z M7.72720183,86.8797303 L316.815275,422.045124 L559.64133,4.506 L7.72720183,86.8797303 Z" id="Shape"></path>
                            </g>
                            <g id="triangle36-77" opacity="0.3" transform="translate(782.821101, 703.746067)">
                                <path d="M2.02018349,573.730267 C1.66871757,573.72356 1.32334796,573.637004 1.01009174,573.477101 C0.401766794,573.102006 0.0515296503,572.419308 0.101009176,571.705079 L42.4238532,4.35411236 C42.4572496,3.59949359 42.9641557,2.94905269 43.6864679,2.73397753 C44.3999565,2.47612626 45.1981456,2.67616594 45.7066514,3.24026966 L358.835092,342.911663 C359.20988,343.321892 359.377271,343.88124 359.289633,344.430539 C359.239313,344.998077 358.919833,345.506738 358.431055,345.797528 L2.62623853,573.628989 C2.43141324,573.696963 2.22646923,573.730267 2.02018349,573.730267 Z M46.1106881,9.012 L4.19188074,568.211663 L354.895734,343.822989 L46.1106881,9.012 Z" id="Shape"></path>
                            </g>
                        </g>
                    </g>
                </g>
            </g>
        </g>
    </g>
</svg>