{
    "family": "", 
    "networkMode": "awsvpc",
    "executionRoleArn": "arn:aws:iam::612082999652:role/ecsTaskExecutionRole",
    "containerDefinitions": [
        {
            "name": "site-management-fe", 
            "image": "", 
            "portMappings": [
                {
                    "containerPort": 80, 
                    "hostPort": 80, 
                    "protocol": "tcp"
                }
            ], 
            "essential": true
        }
    ], 
    "requiresCompatibilities": [
        "FARGATE"
    ], 
    "cpu": "256", 
    "memory": "512"
}
